Custom event logged: 1676815274462
::ffff:127.0.0.1 - - [19/Feb/2023:14:01:14 +0000] "GET /new-page HTTP/1.1" 304 - "-" "Mozilla/5.0 (X11; Ubuntu; Linux x86_64; rv:109.0) Gecko/20100101 Firefox/109.0"
Custom event logged: 1676816466588
::ffff:127.0.0.1 - - [19/Feb/2023:14:21:06 +0000] "GET /new-page HTTP/1.1" 304 - "-" "Mozilla/5.0 (X11; Ubuntu; Linux x86_64; rv:109.0) Gecko/20100101 Firefox/109.0"
Custom event logged: 1676816475679
::ffff:127.0.0.1 - - [19/Feb/2023:14:21:15 +0000] "GET /INDEX HTTP/1.1" 200 343 "-" "Mozilla/5.0 (X11; Ubuntu; Linux x86_64; rv:109.0) Gecko/20100101 Firefox/109.0"
::ffff:127.0.0.1 - - [19/Feb/2023:14:21:15 +0000] "GET /css/index.css HTTP/1.1" 304 - "http://localhost:3500/INDEX" "Mozilla/5.0 (X11; Ubuntu; Linux x86_64; rv:109.0) Gecko/20100101 Firefox/109.0"
Custom event logged: 1676816475842
Custom event logged: 1676817941233
::ffff:127.0.0.1 - - [19/Feb/2023:14:45:41 +0000] "GET /example1.com HTTP/1.1" 404 275 "-" "Mozilla/5.0 (X11; Ubuntu; Linux x86_64; rv:109.0) Gecko/20100101 Firefox/109.0"
Custom event logged: 1676817970931
::ffff:127.0.0.1 - - [19/Feb/2023:14:46:10 +0000] "GET /example1.com HTTP/1.1" 404 151 "-" "Mozilla/5.0 (X11; Ubuntu; Linux x86_64; rv:109.0) Gecko/20100101 Firefox/109.0"
Custom event logged: 1676818513900
::ffff:127.0.0.1 - - [19/Feb/2023:14:55:13 +0000] "GET /example1 HTTP/1.1" 404 147 "-" "Mozilla/5.0 (X11; Ubuntu; Linux x86_64; rv:109.0) Gecko/20100101 Firefox/109.0"
